%YAML 1.1
%TAG !u! tag:unity3d.com,2011:
--- !u!687078895 &4343727234628468602
SpriteAtlas:
  m_ObjectHideFlags: 0
  m_CorrespondingSourceObject: {fileID: 0}
  m_PrefabInstance: {fileID: 0}
  m_PrefabAsset: {fileID: 0}
  m_Name: DefaultBoxAtlas
  m_EditorData:
    serializedVersion: 2
    textureSettings:
      serializedVersion: 2
      anisoLevel: 1
      compressionQuality: 50
      maxTextureSize: 2048
      textureCompression: 0
      filterMode: 1
      generateMipMaps: 0
      readable: 0
      crunchedCompression: 0
      sRGB: 1
    platformSettings:
    - serializedVersion: 3
      m_BuildTarget: DefaultTexturePlatform
      m_MaxTextureSize: 8192
      m_ResizeAlgorithm: 0
      m_TextureFormat: -1
      m_TextureCompression: 1
      m_CompressionQuality: 50
      m_CrunchedCompression: 0
      m_AllowsAlphaSplitting: 0
      m_Overridden: 0
      m_AndroidETC2FallbackOverride: 0
      m_ForceMaximumCompressionQuality_BC6H_BC7: 1
    packingSettings:
      serializedVersion: 2
      padding: 8
      blockOffset: 1
      allowAlphaSplitting: 0
      enableRotation: 1
      enableTightPacking: 0
      enableAlphaDilation: 0
    secondaryTextureSettings: {}
    variantMultiplier: 1
    packables:
    - {fileID: 21300000, guid: 0e2442729aded0b4095c0e07877b7ca5, type: 3}
    - {fileID: 21300000, guid: f86217e12f0a17e4b9eaedabd7edc4e8, type: 3}
    - {fileID: 21300000, guid: 4fb34778184e378489913ab0ec0859a0, type: 3}
    - {fileID: 21300000, guid: 51b25b297e324de4892086f851eca802, type: 3}
    - {fileID: 21300000, guid: e890010d0366db1468ace2eaef8b8f54, type: 3}
    - {fileID: 21300000, guid: dc2677eba5148754583c01e3d42b1a55, type: 3}
    - {fileID: 21300000, guid: 01b62160e9b2df94eb58cb95ba812ec1, type: 3}
    - {fileID: 21300000, guid: da6f1533a094d3849b0ce660b309f19d, type: 3}
    bindAsDefault: 1
    isAtlasV2: 0
    cachedData: {fileID: 0}
  m_MasterAtlas: {fileID: 0}
  m_PackedSprites:
  - {fileID: 21300000, guid: 01b62160e9b2df94eb58cb95ba812ec1, type: 3}
  - {fileID: 21300000, guid: f86217e12f0a17e4b9eaedabd7edc4e8, type: 3}
  - {fileID: 21300000, guid: 0e2442729aded0b4095c0e07877b7ca5, type: 3}
  - {fileID: 21300000, guid: da6f1533a094d3849b0ce660b309f19d, type: 3}
  - {fileID: 21300000, guid: 4fb34778184e378489913ab0ec0859a0, type: 3}
  - {fileID: 21300000, guid: 51b25b297e324de4892086f851eca802, type: 3}
  - {fileID: 21300000, guid: dc2677eba5148754583c01e3d42b1a55, type: 3}
  - {fileID: 21300000, guid: e890010d0366db1468ace2eaef8b8f54, type: 3}
  m_PackedSpriteNamesToIndex:
  - BoxOutBaseLeft
  - box01
  - box00
  - BoxOutBaseRight
  - box02
  - box03
  - BoxLine
  - BoxInBase
  m_RenderDataMap: {}
  m_Tag: DefaultBoxAtlas
  m_IsVariant: 0
