%YAML 1.1
%TAG !u! tag:unity3d.com,2011:
--- !u!687078895 &4343727234628468602
SpriteAtlas:
  m_ObjectHideFlags: 0
  m_CorrespondingSourceObject: {fileID: 0}
  m_PrefabInstance: {fileID: 0}
  m_PrefabAsset: {fileID: 0}
  m_Name: GameMenu
  m_EditorData:
    serializedVersion: 2
    textureSettings:
      serializedVersion: 2
      anisoLevel: 1
      compressionQuality: 50
      maxTextureSize: 2048
      textureCompression: 0
      filterMode: 1
      generateMipMaps: 0
      readable: 0
      crunchedCompression: 0
      sRGB: 1
    platformSettings:
    - serializedVersion: 3
      m_BuildTarget: DefaultTexturePlatform
      m_MaxTextureSize: 8192
      m_ResizeAlgorithm: 0
      m_TextureFormat: -1
      m_TextureCompression: 1
      m_CompressionQuality: 50
      m_CrunchedCompression: 0
      m_AllowsAlphaSplitting: 0
      m_Overridden: 0
      m_AndroidETC2FallbackOverride: 0
      m_ForceMaximumCompressionQuality_BC6H_BC7: 1
    packingSettings:
      serializedVersion: 2
      padding: 8
      blockOffset: 1
      allowAlphaSplitting: 0
      enableRotation: 1
      enableTightPacking: 0
      enableAlphaDilation: 0
    secondaryTextureSettings: {}
    variantMultiplier: 1
    packables:
    - {fileID: 21300000, guid: b760656a6a031a84aa716bdcdf6f8a35, type: 3}
    - {fileID: 21300000, guid: e27e0c509037e4f4f9a720b77d70a230, type: 3}
    - {fileID: 21300000, guid: 56964f7774d598348bb3185b6f03e25b, type: 3}
    - {fileID: 21300000, guid: 017e4ce0af82ad5418fb6553c879dddd, type: 3}
    - {fileID: 21300000, guid: 303cc7034e2103f42b9e8d9b87a0cd70, type: 3}
    - {fileID: 21300000, guid: 899dddfd81c69c442b5c5e1e269066d4, type: 3}
    - {fileID: 21300000, guid: 109c75742c67d42448b0ba96a984c56b, type: 3}
    - {fileID: 21300000, guid: 6a79cfba31ec01d4287c02589275a3cd, type: 3}
    bindAsDefault: 1
    isAtlasV2: 0
    cachedData: {fileID: 0}
  m_MasterAtlas: {fileID: 0}
  m_PackedSprites:
  - {fileID: 21300000, guid: e27e0c509037e4f4f9a720b77d70a230, type: 3}
  - {fileID: 21300000, guid: 017e4ce0af82ad5418fb6553c879dddd, type: 3}
  - {fileID: 21300000, guid: 303cc7034e2103f42b9e8d9b87a0cd70, type: 3}
  - {fileID: 21300000, guid: 109c75742c67d42448b0ba96a984c56b, type: 3}
  - {fileID: 21300000, guid: 56964f7774d598348bb3185b6f03e25b, type: 3}
  - {fileID: 21300000, guid: b760656a6a031a84aa716bdcdf6f8a35, type: 3}
  - {fileID: 21300000, guid: 6a79cfba31ec01d4287c02589275a3cd, type: 3}
  - {fileID: 21300000, guid: 899dddfd81c69c442b5c5e1e269066d4, type: 3}
  m_PackedSpriteNamesToIndex:
  - AdButtonStroke
  - SquareMenuStroke
  - sHARE
  - quitIconMinimalistic
  - PauseIcon
  - AdButton
  - restartIconMinimalistic
  - playIconMinimalistoc
  m_RenderDataMap: {}
  m_Tag: GameMenu
  m_IsVariant: 0
